LIANA Tutorial • liana
…
Obtain Consensus Ranks

liana also provides consensus ranks for the results obtained using different methods. By default, liana will provide mean, median, and a aggregate* consensus ranks

# Run liana
liana_test %>%
  liana_aggregate()
#> # A tibble: 9,495 x 13
#>    source ligand target receptor aggregate_rank mean_rank median_rank
#>    <chr>  <chr>  <chr>  <chr>             <dbl>     <dbl>       <dbl>
#>  1 B      LGALS9 NK     HAVCR2       0.00000247      59            87
#>  2 NK     PTPRC  B      CD22         0.00000394      79.3         101
#>  3 B      FCER2  CD8 T  CR2          0.0000181      112.          161
#>  4 NK     HLA-B  CD8 T  CD8A         0.0000440     3172.           21
#>  5 NK     B2M    NK     CD247        0.0000440     3168.            7
#>  6 NK     CCL3   CD8 T  CCR5         0.0000497      108            81
#>  7 NK     SELL   B      PODXL2       0.0000535      113            90
#>  8 NK     PDGFD  CD8 T  EPHA1        0.0000721      155           190
#>  9 B      COL18… NK     ITGA5        0.0000737      155           190
#> 10 NK     PDGFD  B      LTK          0.0000753      155           190
#> # … with 9,485 more rows, and 6 more variables: sca.LRscore <dbl>,
#> #   sca.rank <dbl>, squidpy.pvalue <dbl>, squidpy.rank <dbl>,
#> #   connectome.weight_sc <dbl>, connectome.rank <dbl>
…
