Context Factorisation with tensor-cell2cell • liana
…
PROGENy represent a data-driven signatures for 14 pathways, while decoupleR is an framework with multiple enrichment methods.

Since PROGENy was originally intended to be used with genes, we need to reformat it to match ligand-receptor predictions. Namely, generate_lr_geneset will assign a LR to a specific pathway, only if both the ligand and receptor, as well as all their subunits, are associated with the same pathway. And also in the case of weighted gene sets (like progeny), all entities have the same weight sign.

# obtain progeny gene sets
progeny <- decoupleR::get_progeny(organism = 'human', top=5000) %>%
    select(-p_value)

# convert to LR sets
progeny_lr <- generate_lr_geneset(factors$interactions,
                                  resource = progeny)

progeny_lr

## # A tibble: 941 × 3
##    lr             set         mor
##    <chr>          <chr>     <dbl>
##  1 ACTR2^LDLR     EGFR      1.13 
##  2 ADAM10^CADM1   MAPK     -1.04 
##  3 ADAM10^GPNMB   EGFR     -1.99 
##  4 ADAM10^GPNMB   MAPK     -2.79 
##  5 ADAM10^NOTCH1  EGFR     -0.925
##  6 ADAM10^NOTCH1  MAPK     -0.925
##  7 ADAM10^NOTCH2  TGFb      1.25 
##  8 ADAM10^TSPAN15 MAPK     -0.925
##  9 ADAM12^ITGB1   Androgen -0.677
## 10 ADAM12^ITGB1   TGFb      2.15 
## # … with 931 more rows
…
