LIANA Tutorial • liana
…
SingleCellSignalR, CytoTalk, NATMI, and Connectome scores /w Complexes

The re-implementation of the aforementioned methods in LIANA enables us to make use of multimeric complex information as provided by the e.g. CellPhoneDB, CellChatDB, and ICELLNET resources

# Run liana re-implementations with the CellPhoneDB resource
complex_test <- liana_wrap(testdata,
                           method = c('natmi', 'sca', 'logfc'),
                           resource = c('CellPhoneDB'))
#> Warning in .filter_sce(sce): 3465 genes and/or 0 cells were removed as they had
#> no counts!

complex_test %>% liana_aggregate()
#> # A tibble: 233 x 13
#>    source ligand target receptor aggregate_rank mean_rank median_rank
#>    <chr>  <chr>  <chr>  <chr>             <dbl>     <dbl>       <dbl>
#>  1 CD8 T  LCK    CD8 T  CD8B           0.000765      10.7          11
#>  2 NK     MIF    B      CD74           0.000851      25.7           2
#>  3 B      MIF    B      CD74           0.00191       41             3
#>  4 NK     HLA-C  NK     KIR2DL3        0.00279       19.3          18
#>  5 CD8 T  MIF    B      CD74           0.00338       36.3           4
#>  6 NK     PTPRC  B      CD22           0.00764       29.3          29
#>  7 CD8 T  PTPRC  B      CD22           0.00849       26            29
#>  8 NK     CD58   CD8 T  CD2            0.0103        30             7
#>  9 B      COPA   B      CD74           0.0104        21.7          31
#> 10 CD8 T  CD48   NK     CD244          0.0125        22.7          21
#> # … with 223 more rows, and 6 more variables: natmi.edge_specificity <dbl>,
#> #   natmi.rank <dbl>, sca.LRscore <dbl>, sca.rank <dbl>,
#> #   logfc.logfc_comb <dbl>, logfc.rank <dbl>
…
