LIANA++ for Benchmarks and Developers • liana
…
## Doing B and B ... OK
## Doing B and CD8 T ... OK
## Doing B and NK ... OK
## Doing CD8 T and B ... OK
## Doing CD8 T and CD8 T ... OK
## Doing CD8 T and NK ... OK
## Doing NK and B ... OK
## Doing NK and CD8 T ... OK
## Doing NK and NK ... OK

# Show CellChat Results
sca_res

## # A tibble: 1,264 x 5
##    source ligand   target receptor LRscore
##    <chr>  <chr>    <chr>  <chr>      <dbl>
##  1 B      B2M      B      HLA-E      0.947
##  2 B      HLA-DRA  B      CD37       0.944
##  3 B      HLA-DRB1 B      CD37       0.934
##  4 B      HLA-DMA  B      CD74       0.929
##  5 B      HLA-DRA  B      CD53       0.925
##  6 B      CD74     B      CXCR4      0.925
##  7 B      HLA-C    B      CD53       0.921
##  8 B      HLA-DMB  B      CD74       0.918
##  9 B      CD53     B      CD37       0.914
## 10 B      HLA-DRB1 B      CD53       0.912
## # … with 1,254 more rows
…
liana_calls %>% liana_aggregate() # Connectome finds no significant hits here

## # A tibble: 1,982 x 15
##    source ligand target receptor aggregate_rank mean_rank median_rank
##    <chr>  <chr>  <chr>  <chr>             <dbl>     <dbl>       <dbl>
##  1 NK     HLA-C  CD8 T  CD3D           0.000298      756        756. 
##  2 NK     SPON2  NK     ITGB2          0.000630      402.        52.5
##  3 NK     HLA-B  CD8 T  CD3D           0.000734      758.       758  
##  4 NK     B2M    CD8 T  CD3D           0.00136       757.       762  
##  5 NK     B2M    NK     KLRD1          0.00266       762.       766. 
##  6 NK     B2M    NK     CD247          0.00291       760.       766  
##  7 NK     CALM1  NK     SELL           0.00375       766.       768  
##  8 NK     HLA-B  NK     KLRD1          0.00375       431.       101  
##  9 NK     HLA-C  NK     KIR2DL3        0.00490       454.       134  
## 10 NK     HLA-A  CD8 T  CD3D           0.00504       764        772. 
## # … with 1,972 more rows, and 8 more variables:
## #   call_connectome.weight_sc <dbl>, call_connectome.rank <dbl>,
## #   call_sca.LRscore <dbl>, call_sca.rank <dbl>, call_italk.logfc_comb <dbl>,
## #   call_italk.rank <dbl>, call_natmi.edge_specificity <dbl>,
## #   call_natmi.rank <dbl>
…
