LIANA with Intracellular Omnipath • liana
…
## Now aggregating natmi

## Now aggregating connectome

## Now aggregating logfc

## Now aggregating sca

## Now aggregating cellphonedb

## Aggregating Ranks

liana_rtk_omni

## # A tibble: 39 × 16
##    source target ligand receptor aggregate_rank mean_rank natmi.edge_specificity
##    <chr>  <chr>  <chr>  <chr>             <dbl>     <dbl>                  <dbl>
##  1 NK     NK     TGFB1  TGFBR1        0.0000567       2.6                  0.488
##  2 NK     CD8 T  IFNG   IFNGR1        0.000431        4.2                  0.359
##  3 NK     CD8 T  TGFB1  TGFBR2        0.000931        4                    0.355
##  4 CD8 T  NK     IL23A  IL12RB1       0.00182         2.8                  0.530
##  5 NK     B      IFNG   IFNGR2        0.00327         5.2                  0.372
##  6 NK     CD8 T  IL10RB IL10RA        0.00327         7.4                  0.349
##  7 B      CD8 T  IL4R   IL2RG         0.0206          9.4                  0.259
##  8 B      CD8 T  IFNAR1 IFNGR1        0.0298         12.4                  0.261
##  9 NK     NK     IFNG   IFNGR2        0.0421         10.4                  0.269
## 10 NK     CD8 T  TGFBR1 TGFBR2        0.0578          9.6                  0.526
## # … with 29 more rows, and 9 more variables: natmi.rank <dbl>,
## #   connectome.weight_sc <dbl>, connectome.rank <dbl>, logfc.logfc_comb <dbl>,
## #   logfc.rank <dbl>, sca.LRscore <dbl>, sca.rank <dbl>,
## #   cellphonedb.pvalue <dbl>, cellphonedb.rank <dbl>
…
# we take liana from above and keep only the columns that we need
# in this case we will use the aggragate for all methods
liana_form <- liana_res %>%
  select(source, ligand, target,
         receptor, aggregate_rank) %>%
  # one could treat the aggragate rank as 
  # the probability to observe an interaction
  # as preferentially highly ranked
  # one could also p.adjust
  # mutate(aggregate_rank = p.adjust(aggregate_rank)) %>%
  filter(aggregate_rank <= 0.05)
liana_form

## # A tibble: 191 × 5
##    source ligand   target receptor aggregate_rank
##    <chr>  <chr>    <chr>  <chr>             <dbl>
##  1 B      HLA-DRA  NK     CD63        0.000000460
##  2 B      HLA-DRA  B      CD37        0.000000522
##  3 B      MS4A1    B      CD82        0.000000965
##  4 B      HLA-DQA1 CD8 T  LAG3        0.00000322 
##  5 B      HLA-DRA  B      CD19        0.00000326 
##  6 B      HLA-DMA  B      CD74        0.00000397 
##  7 B      HLA-DMB  B      CD74        0.00000467 
##  8 B      HLA-DRB1 B      CD37        0.00000827 
##  9 B      HLA-DRB1 B      CD19        0.00000972 
## 10 B      HLA-DRA  B      CD82        0.0000114  
## # … with 181 more rows
…
# Note that the ligand coverage of some gene sets is simply too limited
# So, one could consider not limiting the results to the ligands alone
liana_hyperenrich

## # A tibble: 151 × 8
##    ligand geneset        geneset_n background source distinct_hits ligands_in_gs
##    <chr>  <chr>              <int>      <int> <chr>          <int>         <int>
##  1 NCR1   HALLMARK_ALLO…        90       1219 NK                87            13
##  2 HLA-A  HALLMARK_ALLO…        90       1219 NK                87            13
##  3 ITGB2  HALLMARK_ALLO…        90       1219 NK                87            13
##  4 PTPRC  HALLMARK_ALLO…        90       1219 NK                87            13
##  5 HLA-E  HALLMARK_ALLO…        90       1219 NK                87            13
##  6 IL2RB  HALLMARK_ALLO…        90       1219 NK                87            13
##  7 IL2RG  HALLMARK_ALLO…        90       1219 NK                87            13
##  8 CD47   HALLMARK_ALLO…        90       1219 NK                87            13
##  9 KLRD1  HALLMARK_ALLO…        90       1219 NK                87            13
## 10 B2M    HALLMARK_ALLO…        90       1219 NK                87            13
## # … with 141 more rows, and 1 more variable: pval <dbl>

Format Hypergeometric test results

liana_hyperenrich %>%
  select(geneset, source, pval) %>%
  distinct() %>%
  mutate(adj_pval = p.adjust(pval, method = "fdr")) %>%
  arrange(adj_pval)

## # A tibble: 67 × 4
##    geneset                            source    pval adj_pval
##    <chr>                              <chr>    <dbl>    <dbl>
##  1 HALLMARK_ALLOGRAFT_REJECTION       NK     0.00319    0.134
##  2 HALLMARK_MTORC1_SIGNALING          NK     0.00600    0.134
##  3 HALLMARK_FATTY_ACID_METABOLISM     NK     0.00600    0.134
##  4 HALLMARK_INTERFERON_ALPHA_RESPONSE NK     0.0139     0.193
##  5 HALLMARK_UNFOLDED_PROTEIN_RESPONSE NK     0.0144     0.193
##  6 HALLMARK_PROTEIN_SECRETION         B      0.0275     0.213
##  7 HALLMARK_PROTEIN_SECRETION         NK     0.0275     0.213
##  8 HALLMARK_G2M_CHECKPOINT            NK     0.0275     0.213
##  9 HALLMARK_INTERFERON_GAMMA_RESPONSE NK     0.0380     0.213
## 10 HALLMARK_INTERFERON_GAMMA_RESPONSE B      0.0380     0.213
## # … with 57 more rows
…
